{"total_rows":12,"offset":0,"rows":[
{"id":"32bf6f004d0390b374a69e6c5801c56d","key":"32bf6f004d0390b374a69e6c5801c56d","value":{"rev":"1-6f5c1a737e3c5269482d48bf76c50758"},"doc":{"_id":"32bf6f004d0390b374a69e6c5801c56d","_rev":"1-6f5c1a737e3c5269482d48bf76c50758","isbn":"9788576653721","name":"The Alchemist","category":"Fantasy","author":"paulo coelho","published_on":"1998-12-12","type":"book","id":"Fantasy-9788576653721"}},
{"id":"32bf6f004d0390b374a69e6c5801ce27","key":"32bf6f004d0390b374a69e6c5801ce27","value":{"rev":"1-8ea528bdff2efb1f0616d945b7855a21"},"doc":{"_id":"32bf6f004d0390b374a69e6c5801ce27","_rev":"1-8ea528bdff2efb1f0616d945b7855a21","isbn":"9783426421833","name":"The monk who sold his ferrari","category":"Fable","author":"Robin sharma","published_on":"2000-01-31","type":"book","id":"Fable-9783426421833"}},
{"id":"32bf6f004d0390b374a69e6c5801d7e2","key":"32bf6f004d0390b374a69e6c5801d7e2","value":{"rev":"12-106f9160f077f24aeca2e5a93378345c"},"doc":{"_id":"32bf6f004d0390b374a69e6c5801d7e2","_rev":"12-106f9160f077f24aeca2e5a93378345c","id":"Drama-9788184231175","name":"Aadu jeevidham","isbn":"9788184231175","category":"Drama","author":"Benyamin","published_on":"2001-10-10","type":"book","row_id":"32bf6f004d0390b374a69e6c5801d7e2"}},
{"id":"32bf6f004d0390b374a69e6c5801e65f","key":"32bf6f004d0390b374a69e6c5801e65f","value":{"rev":"1-3f09eb4fa3befdbf3102750e110bc92d"},"doc":{"_id":"32bf6f004d0390b374a69e6c5801e65f","_rev":"1-3f09eb4fa3befdbf3102750e110bc92d","isbn":"9789351865605","name":"Wings of Fire","category":"Fan-Fiction","author":"APJ AbdulKalam","published_on":"2003-01-12","type":"book","id":"Fan-Fiction-9789351865605"}},
{"id":"32bf6f004d0390b374a69e6c5801eacc","key":"32bf6f004d0390b374a69e6c5801eacc","value":{"rev":"4-149f2a972cb434a24a2cae0af57a202e"},"doc":{"_id":"32bf6f004d0390b374a69e6c5801eacc","_rev":"4-149f2a972cb434a24a2cae0af57a202e","isbn":"9780241242643","name":"The book of why","category":"Drama","author":"Judea Pearl","published_on":"1995-04-07","type":"book","id":"Drama-9780241242643","userId":"32bf6f004d0390b374a69e6c5801c1f4"}},
{"id":"32bf6f004d0390b374a69e6c5801fa24","key":"32bf6f004d0390b374a69e6c5801fa24","value":{"rev":"1-ff210cd0db54a9d618f0af077d6e004c"},"doc":{"_id":"32bf6f004d0390b374a69e6c5801fa24","_rev":"1-ff210cd0db54a9d618f0af077d6e004c","isbn":"9788280874412","name":"Eleven Minutes","category":"Drama","author":"Paulo caelo","published_on":"2001-03-19","type":"book","id":"Drama-9788280874412"}},
{"id":"32bf6f004d0390b374a69e6c58020101","key":"32bf6f004d0390b374a69e6c58020101","value":{"rev":"6-077d4043d2506cddfe1cfe98ded547df"},"doc":{"_id":"32bf6f004d0390b374a69e6c58020101","_rev":"6-077d4043d2506cddfe1cfe98ded547df","id":"Drama-7006538042795","type":"book","name":"Bashherinte Prema leknam","isbn":"7006538042795","category":"Drama","author":"Vaikam Muhammed Basheer","published_on":"1980-06-10","row_id":"32bf6f004d0390b374a69e6c58020101"}},
{"id":"32bf6f004d0390b374a69e6c58039b12","key":"32bf6f004d0390b374a69e6c58039b12","value":{"rev":"1-d080ce453fe20e45c4ea10b9e8ba7591"},"doc":{"_id":"32bf6f004d0390b374a69e6c58039b12","_rev":"1-d080ce453fe20e45c4ea10b9e8ba7591","username":"lib1","password":"secret","role":"librarian","first_name":"Lib 1","last_name":"test","email":"lib@gmail.com","phone_number":"09633333583","type":"user","id":"lib1-00001","related_no":1,"status":"active"}},
{"id":"32bf6f004d0390b374a69e6c5803a210","key":"32bf6f004d0390b374a69e6c5803a210","value":{"rev":"1-f47701a41b74a662f79b9a6ed602e4a4"},"doc":{"_id":"32bf6f004d0390b374a69e6c5803a210","_rev":"1-f47701a41b74a662f79b9a6ed602e4a4","username":"reader1","password":"secret","role":"reader","first_name":"User Reader","last_name":"1","email":"reader@gmail.com","phone_number":"09633333583","type":"user","id":"reader1-00002","related_no":2,"status":"active"}},
{"id":"_design/books","key":"_design/books","value":{"rev":"18-b217eaa0bc89e09be9d27ba743c61c7d"},"doc":{"_id":"_design/books","_rev":"18-b217eaa0bc89e09be9d27ba743c61c7d","views":{"books":{"map":"function (doc) {\n if(doc.type==\"book\"){\n   emit(doc.id,{\n     \"_rev\":doc._rev,\n     \"id\":doc.id,\n     \"type\":doc.type,\n     \"name\":doc.name,\n   'isbn':doc.isbn,\n\"_rev\": doc._rev,\n\"category\":doc.category,\n\"author\": doc.author,\n\"published_on\": doc.published_on,\n\"userId\":doc.userId\n   });\n }\n}"}},"language":"javascript"}},
{"id":"_design/users","key":"_design/users","value":{"rev":"13-6911873afa29b2df71f24fddc4983249"},"doc":{"_id":"_design/users","_rev":"13-6911873afa29b2df71f24fddc4983249","views":{"users":{"map":"function (doc) {\n if(doc.type==\"user\" &&doc.role!=\"admin\"){\n   emit(doc.id,{\n     \"id\":doc.id,\n     \"first_name\":doc.first_name,\n   'last_name':doc.last_name,\n\"_rev\": doc._rev,\n\"email\":doc.email,\n\"role\":doc.role,\n\"phone_number\": doc.phone_number,\n\"username\": doc.username,\n\"status\":doc.status\n   });\n }\n}"},"user-stat":{"reduce":"_stats","map":"// Map function\nfunction(doc){\n    if(doc.type == \"user\"){\n    var r_no= doc.related_no==null?0:doc.related_no;\n        emit(null, parseInt(r_no));\n    }\n}"},"reader-user":{"map":"function (doc) {\n if(doc.type==\"user\" &&doc.role==\"reader\"&&doc.status=='active'){\n   emit(doc.id,{\n     \"id\":doc.id,\n     \"first_name\":doc.first_name,\n   'last_name':doc.last_name\n   });\n }\n}"}},"language":"javascript"}},
{"id":"c0e6728c2b3c3148568d663bd200409a","key":"c0e6728c2b3c3148568d663bd200409a","value":{"rev":"5-b3573a3f851d9bc8f60b1dee4125ebdd"},"doc":{"_id":"c0e6728c2b3c3148568d663bd200409a","_rev":"5-b3573a3f851d9bc8f60b1dee4125ebdd","type":"user","role":"admin","first_name":"Suhail","last_name":"Pallimalil","email":"suhailpallimalil@gmail.com","phone":"+91 9633 333 583","username":"suhailpallimalil","password":"secret"}}
]}
